[gd_scene load_steps=5 format=2]

[ext_resource path="res://assets/apropos.png" type="Texture" id=1]
[ext_resource path="res://scenes/APropos.gd" type="Script" id=2]
[ext_resource path="res://assets/apropos_en.png" type="Texture" id=3]

[sub_resource type="AnimatedTexture" id=1]
flags = 4
frames = 2
pause = true
frame_0/texture = ExtResource( 1 )
frame_1/texture = ExtResource( 3 )
frame_1/delay_sec = 0.0

[node name="Control" type="Control"]
anchor_right = 1.0
anchor_bottom = 1.0
script = ExtResource( 2 )
__meta__ = {
"_edit_use_anchors_": false
}

[node name="TextureRect" type="TextureRect" parent="."]
margin_right = 40.0
margin_bottom = 40.0
texture = SubResource( 1 )
__meta__ = {
"_edit_use_anchors_": false
}
